…
## Loading and preprocessing the data


```r
library(dplyr)
library(lubridate)
library(ggplot2)
act <- read.csv2("activity.csv", header = TRUE, sep = ",", stringsAsFactors = FALSE)
act <- tbl_df(act) 
act <- suppressWarnings(mutate(act, date = ymd(date)))
act
```

```
## # A tibble: 17,568 × 3
##    steps       date interval
##    <int>     <date>    <int>
## 1     NA 2012-10-01        0
## 2     NA 2012-10-01        5
## 3     NA 2012-10-01       10
## 4     NA 2012-10-01       15
## 5     NA 2012-10-01       20
## 6     NA 2012-10-01       25
## 7     NA 2012-10-01       30
## 8     NA 2012-10-01       35
## 9     NA 2012-10-01       40
## 10    NA 2012-10-01       45
## # ... with 17,558 more rows
```

## What is mean total number of steps taken per day?
NOTE: For this part of the assignment, you can ignore the missing values in the dataset.
 
1. Calculate the total number of steps taken per day


```r
act.by.date <- group_by(act, date)
total.steps.by.date <- summarize(act.by.date, steps = sum(steps, na.rm = TRUE))
total.steps.by.date
```

```
## # A tibble: 61 × 2
##          date steps
##        <date> <int>
## 1  2012-10-01     0
## 2  2012-10-02   126
## 3  2012-10-03 11352
## 4  2012-10-04 12116
## 5  2012-10-05 13294
## 6  2012-10-06 15420
## 7  2012-10-07 11015
## 8  2012-10-08     0
## 9  2012-10-09 12811
## 10 2012-10-10  9900
## # ... with 51 more rows
```
…
```r
act.miss <- filter(act, is.na(steps))
act.miss <- inner_join(act.miss, mean.steps.by.interval, by = "interval")
act.miss <- select(act.miss, steps.y, date, interval) %>% rename(imputed.steps = steps.y)
act.imputed <- left_join(act, act.miss, by = c("date", "interval"))
act.imputed <- mutate(act.imputed, steps = ifelse(is.na(steps), imputed.steps, steps)) %>%
    select(interval, date, steps)
act.imputed
```

```
## # A tibble: 17,568 × 3
##    interval       date steps
##       <int>     <date> <int>
## 1         0 2012-10-01     1
## 2         5 2012-10-01     0
## 3        10 2012-10-01     0
## 4        15 2012-10-01     0
## 5        20 2012-10-01     0
## 6        25 2012-10-01     2
## 7        30 2012-10-01     0
## 8        35 2012-10-01     0
## 9        40 2012-10-01     0
## 10       45 2012-10-01     1
## # ... with 17,558 more rows
```
…
For this part the weekdays() function may be of some help here. Use the dataset with the filled-in missing values for this part.

1. Create a new factor variable in the dataset with two levels -- "weekday" and "weekend" indicating whether a given date is a weekday or weekend day.


```r
library(chron)
act.imputed <- mutate(act.imputed, isWeekend = as.factor(
    ifelse(is.weekend(date), "weekend", "weekday")))
act.imputed
```

```
## # A tibble: 17,568 × 4
##    interval       date steps isWeekend
##       <int>     <date> <int>    <fctr>
## 1         0 2012-10-01     1   weekday
## 2         5 2012-10-01     0   weekday
## 3        10 2012-10-01     0   weekday
## 4        15 2012-10-01     0   weekday
## 5        20 2012-10-01     0   weekday
## 6        25 2012-10-01     2   weekday
## 7        30 2012-10-01     0   weekday
## 8        35 2012-10-01     0   weekday
## 9        40 2012-10-01     0   weekday
## 10       45 2012-10-01     1   weekday
## # ... with 17,558 more rows
```
…
